  var Data = "<tr class='row_" + ListLicenses[i].Lid + "'>" +
                "<td>" + ListLicenses[i].id + "</td>" +
                "<td>" + ListLicenses[i].Name + "</td>" +
                "<td>" + ListLicenses[i].Place + "</td>" +
                "<td>" + ListLicenses[i].StartDate + "</td>" +
                "<td>" + ListLicenses[i].EndDate + "</td>" +
                "<td>" + "<a  target='_blank' href='" + ListLicenses[i].Img + " '><i class='ace-icon fa fa-cloud-download'></i></a>" +
                "<td>" + "<a href='#'  onclick='DeleteLicenses(" + ListLicenses[i].id + ")'><span class='glyphicon glyphicon-trash'></span></a>" + "</td>" +
                "</tr>";
            SetData.append(Data);
            $("#LoadingLicense").html(" ");